<?xml version="1.0" encoding="UTF-8"?>
<svg width="60px" height="60px" viewBox="0 0 60 60" version="1.1" xmlns="http://www.w3.org/2000/svg" xmlns:xlink="http://www.w3.org/1999/xlink">
    <!-- Generator: Sketch 57.1 (83088) - https://sketch.com -->
    <title>编组 4</title>
    <desc>Created with Sketch.</desc>
    <g id="工单管理" stroke="none" stroke-width="1" fill="none" fill-rule="evenodd">
        <g id="工单管理-(工班长)维护巡检" transform="translate(-420.000000, -198.000000)">
            <g id="编组-4" transform="translate(420.000000, 198.000000)">
                <circle id="椭圆形" fill-opacity="0.5" fill="#FFFFFF" cx="30" cy="30" r="30"></circle>
                <g id="审核成功" transform="translate(10.000000, 11.000000)" fill-rule="nonzero">
                    <path d="M29.3781394,40 L6.62186063,40 C2.96455607,40 0,37.2004089 0,33.7466178 L0,6.25338224 C0,2.79959113 2.96455607,0 6.62186063,0 L29.3781394,0 C33.0354439,0 36,2.79959113 36,6.25338224 L36,33.7466178 C36,37.2004089 33.0354439,40 29.3781394,40 Z" id="路径" fill="#4BE2AC"></path>
                    <path d="M25.9874214,12.0281974 L10.0125786,12.0281974 C8.90062893,12.0281974 8,11.1268882 8,10.0140987 C8,8.90130916 8.90062893,8 10.0125786,8 L25.9874214,8 C27.0993711,8 28,8.90130916 28,10.0140987 C28,11.1268882 27.0993711,12.0281974 25.9874214,12.0281974 Z M25.9874214,20.0140987 L10.0125786,20.0140987 C8.90062893,20.0140987 8,19.1127895 8,18 C8,16.8872105 8.90062893,15.9859013 10.0125786,15.9859013 L25.9874214,15.9859013 C27.0993711,15.9859013 28,16.8872105 28,18 C28,19.1127895 27.0993711,20.0140987 25.9874214,20.0140987 Z M17.6628931,28 L10.0125786,28 C8.90062893,28 8,27.0986908 8,25.9859013 C8,24.8731118 8.90062893,23.9718026 10.0125786,23.9718026 L17.6628931,23.9718026 C18.7748428,23.9718026 19.6754717,24.8731118 19.6754717,25.9859013 C19.6754717,27.0986908 18.772327,28 17.6628931,28 L17.6628931,28 Z" id="形状" fill="#FFFFFF"></path>
                    <path d="M21,30.5 C21,35.7467051 25.2532949,40 30.5,40 C35.7467051,40 40,35.7467051 40,30.5 C40,25.2532949 35.7467051,21 30.5,21 C25.2532949,21 21,25.2532949 21,30.5 L21,30.5 Z" id="路径" fill="#4BE2AC"></path>
                    <path d="M31.2808055,21 C25.6028081,21 21,25.2601254 21,30.5153895 C21,35.5244334 25.1815999,39.62554 30.4910401,40 C33.6501016,39.2946815 36,36.6606374 36,33.518764 L36,22.0592617 C34.5409293,21.3623657 32.9227027,20.9991421 31.2808055,21 L31.2808055,21 Z" id="路径" fill="#06CC76"></path>
                    <path d="M28.7224311,36 L28.6887914,36 C28.2322539,35.9881966 27.7973418,35.7491785 27.4873768,35.3360606 L24.4453951,31.2875059 C23.8158461,30.4489621 23.858873,29.1424922 24.5415082,28.3691235 C25.2243227,27.5959935 26.288163,27.6488335 26.9179063,28.4871571 L28.7728905,30.9540608 L33.1292198,25.6041848 C33.7851922,24.7986051 34.8520483,24.7986051 35.5080207,25.6041848 C36.1639931,26.4097646 36.1639931,27.7199383 35.5080207,28.5255181 L29.9142343,35.3950775 C29.5972982,35.7815246 29.169052,35.9988892 28.7224311,36 L28.7224311,36 Z" id="路径" fill="#FFFFFF"></path>
                </g>
            </g>
        </g>
    </g>
</svg>